<?xml version="1.0" encoding="UTF-8" standalone="no"?>
<svg
   xmlns:dc="http://purl.org/dc/elements/1.1/"
   xmlns:cc="http://creativecommons.org/ns#"
   xmlns:rdf="http://www.w3.org/1999/02/22-rdf-syntax-ns#"
   xmlns:svg="http://www.w3.org/2000/svg"
   xmlns="http://www.w3.org/2000/svg"
   xmlns:sodipodi="http://sodipodi.sourceforge.net/DTD/sodipodi-0.dtd"
   xmlns:inkscape="http://www.inkscape.org/namespaces/inkscape"
   height="18.05817"
   width="14.481331"
   version="1.1"
   id="svg16"
   sodipodi:docname="mActionZoomToAreaLocked.svg"
   inkscape:version="0.92.5 (2060ec1f9f, 2020-04-08)">
  <metadata
     id="metadata22">
    <rdf:RDF>
      <cc:Work
         rdf:about="">
        <dc:format>image/svg+xml</dc:format>
        <dc:type
           rdf:resource="http://purl.org/dc/dcmitype/StillImage" />
        <dc:title></dc:title>
      </cc:Work>
    </rdf:RDF>
  </metadata>
  <defs
     id="defs20" />
  <sodipodi:namedview
     pagecolor="#ffffff"
     bordercolor="#666666"
     borderopacity="1"
     objecttolerance="10"
     gridtolerance="10"
     guidetolerance="10"
     inkscape:pageopacity="0"
     inkscape:pageshadow="2"
     inkscape:window-width="1872"
     inkscape:window-height="1043"
     id="namedview18"
     showgrid="false"
     inkscape:zoom="19.666666"
     inkscape:cx="7.190046"
     inkscape:cy="11.623959"
     inkscape:window-x="1968"
     inkscape:window-y="0"
     inkscape:window-maximized="1"
     inkscape:current-layer="svg16"
     inkscape:snap-nodes="false"
     fit-margin-top="0"
     fit-margin-left="0"
     fit-margin-right="0"
     fit-margin-bottom="0" />
  <g
     style="stroke-linecap:square"
     transform="matrix(1.2067776,0,0,1.2067776,-2.4135552,-19.351935)"
     id="g8">
    <path
       style="fill:none;stroke:#888a85;stroke-width:3;stroke-linejoin:round"
       inkscape:connector-curvature="0"
       d="m 4.4067695,22.865202 c 0.118637,-3.818452 0.9490726,-5.54713 3.8198656,-5.314294 2.8704699,0.232276 3.5159769,2.078983 3.3968089,5.897741"
       id="path2-3" />
    <path
       style="fill:none;stroke:#eeeeec;stroke-linejoin:round"
       inkscape:connector-curvature="0"
       d="m 4.3924625,22.865202 c 0.118637,-3.818452 0.9490726,-5.591324 3.8198656,-5.358488 2.8704699,0.232276 3.5159769,2.123177 3.3968089,5.941935"
       id="path4-6" />
    <rect
       style="fill:#f1db1e;stroke:#c4a000;stroke-width:0.99999994"
       height="7"
       rx="0.84615386"
       ry="1"
       width="11"
       x="2.5"
       y="23.5"
       id="rect6" />
  </g>
</svg>
